<?xml version="1.0" encoding="UTF-8" standalone="no"?>
<!-- Created with Inkscape (http://www.inkscape.org/) -->

<svg
   xmlns:dc="http://purl.org/dc/elements/1.1/"
   xmlns:cc="http://creativecommons.org/ns#"
   xmlns:rdf="http://www.w3.org/1999/02/22-rdf-syntax-ns#"
   xmlns:svg="http://www.w3.org/2000/svg"
   xmlns="http://www.w3.org/2000/svg"
   xmlns:sodipodi="http://sodipodi.sourceforge.net/DTD/sodipodi-0.dtd"
   xmlns:inkscape="http://www.inkscape.org/namespaces/inkscape"
   width="744.09448819"
   height="1052.3622047"
   id="svg5088"
   version="1.1"
   inkscape:version="0.48.4 r9939"
   sodipodi:docname="base.svg">
  <defs
     id="defs5090" />
  <sodipodi:namedview
     id="base"
     pagecolor="#ffffff"
     bordercolor="#666666"
     borderopacity="1.0"
     inkscape:pageopacity="0.0"
     inkscape:pageshadow="2"
     inkscape:zoom="0.35"
     inkscape:cx="183.09171"
     inkscape:cy="338.85125"
     inkscape:document-units="px"
     inkscape:current-layer="layer1"
     showgrid="false"
     inkscape:window-width="1239"
     inkscape:window-height="776"
     inkscape:window-x="41"
     inkscape:window-y="24"
     inkscape:window-maximized="1" />
  <metadata
     id="metadata5093">
    <rdf:RDF>
      <cc:Work
         rdf:about="">
        <dc:format>image/svg+xml</dc:format>
        <dc:type
           rdf:resource="http://purl.org/dc/dcmitype/StillImage" />
        <dc:title />
      </cc:Work>
    </rdf:RDF>
  </metadata>
  <g
     inkscape:label="Layer 1"
     inkscape:groupmode="layer"
     id="layer1">
    <g
       id="g4905"
       transform="matrix(0.64813852,0,0,0.64813852,1140.9744,-93.773194)">
      <rect
         y="231.75552"
         x="-1574.3337"
         height="1449.5192"
         width="599.12549"
         id="rect4246"
         style="fill:#ffffff;fill-opacity:1;stroke:#000000;stroke-width:3.23674226;stroke-miterlimit:4;stroke-opacity:1;stroke-dasharray:none" />
      <rect
         y="444.53656"
         x="-1572.7777"
         height="1233.4606"
         width="772.83063"
         id="rect4244"
         style="fill:#ffffff;fill-opacity:1;stroke:#000000;stroke-width:6.69690895;stroke-miterlimit:4;stroke-opacity:1;stroke-dasharray:none" />
    </g>
    <rect
       style="opacity:0.35390948;fill:#ffffff;fill-opacity:1;stroke:#000000;stroke-width:3.68099999;stroke-miterlimit:4;stroke-opacity:1;stroke-dasharray:none"
       id="rect3024"
       width="385.87827"
       height="133.34013"
       x="121.21831"
       y="54.331467" />
    <text
       xml:space="preserve"
       style="font-size:31.63243866px;font-style:normal;font-weight:normal;line-height:125%;letter-spacing:0px;word-spacing:0px;fill:#000000;fill-opacity:1;stroke:none;font-family:Sans"
       x="132.14105"
       y="129.8364"
       id="text3026"
       sodipodi:linespacing="125%"><tspan
         sodipodi:role="line"
         id="tspan3028"
         x="132.14105"
         y="129.8364">Fuente de alimentación</tspan></text>
    <g
       id="g3036"
       transform="translate(462.64987,60.609153)">
      <rect
         y="194.40804"
         x="-331.33005"
         height="313.81653"
         width="193.9493"
         id="rect3030"
         style="opacity:0.35390948;fill:#ffffff;fill-opacity:1;stroke:#000000;stroke-width:3.68099999;stroke-miterlimit:4;stroke-opacity:1;stroke-dasharray:none" />
      <text
         sodipodi:linespacing="125%"
         id="text3032"
         y="339.19449"
         x="-305.06604"
         style="font-size:40px;font-style:normal;font-weight:normal;line-height:125%;letter-spacing:0px;word-spacing:0px;fill:#000000;fill-opacity:1;stroke:none;font-family:Sans"
         xml:space="preserve"><tspan
           y="339.19449"
           x="-305.06604"
           id="tspan3034"
           sodipodi:role="line">Switch</tspan></text>
    </g>
    <g
       id="g3036-0"
       transform="translate(465.78397,412.47446)">
      <rect
         y="194.40804"
         x="-331.33005"
         height="313.81653"
         width="193.9493"
         id="rect3030-4"
         style="opacity:0.35390948;fill:#ffffff;fill-opacity:1;stroke:#000000;stroke-width:3.68099999;stroke-miterlimit:4;stroke-opacity:1;stroke-dasharray:none" />
      <text
         sodipodi:linespacing="125%"
         id="text3032-7"
         y="339.19449"
         x="-305.06604"
         style="font-size:40px;font-style:normal;font-weight:normal;line-height:125%;letter-spacing:0px;word-spacing:0px;fill:#000000;fill-opacity:1;stroke:none;font-family:Sans"
         xml:space="preserve"><tspan
           y="339.19449"
           x="-305.06604"
           id="tspan3034-1"
           sodipodi:role="line">Switch</tspan></text>
    </g>
    <g
       id="g4887"
       transform="matrix(0,-0.6995012,0.6995012,0,-365.20525,744.02005)"
       style="opacity:0.32921811">
      <rect
         y="754.23401"
         x="22.902773"
         height="26.128925"
         width="316.68011"
         id="rect3989"
         style="fill:#ffffff;fill-opacity:1;stroke:#000000;stroke-width:2.21753024999999981;stroke-miterlimit:4;stroke-opacity:1;stroke-dasharray:none" />
      <path
         transform="matrix(0.64894248,0,0,0.64894249,456.90561,305.22452)"
         d="m -120,712.36218 c 0,11.0457 -8.95431,20 -20,20 -11.04569,0 -20,-8.9543 -20,-20 0,-11.04569 8.95431,-20 20,-20 11.04569,0 20,8.95431 20,20 z"
         sodipodi:ry="20"
         sodipodi:rx="20"
         sodipodi:cy="712.36218"
         sodipodi:cx="-140"
         id="path3991"
         style="fill:#ffffff;fill-opacity:1;stroke:#000000;stroke-width:3.68099999000000011;stroke-miterlimit:4;stroke-opacity:1;stroke-dasharray:none"
         sodipodi:type="arc" />
      <rect
         y="692.33838"
         x="-357.61877"
         height="312.20108"
         width="1144.8783"
         id="rect4061"
         style="fill:#ffffff;fill-opacity:1;stroke:#000000;stroke-width:6.69654560000000032;stroke-miterlimit:4;stroke-opacity:1;stroke-dasharray:none" />
      <path
         transform="matrix(0.22742602,0,0,0.22742602,-165.58793,628.39792)"
         d="m -360,392.36218 c 0,22.09139 -17.90861,40 -40,40 -22.09139,0 -40,-17.90861 -40,-40 0,-22.09139 17.90861,-40 40,-40 22.09139,0 40,17.90861 40,40 z"
         sodipodi:ry="40"
         sodipodi:rx="40"
         sodipodi:cy="392.36218"
         sodipodi:cx="-400"
         id="path4063"
         style="fill:#ffffff;fill-opacity:1;stroke:#000000;stroke-width:3.68099999000000011;stroke-miterlimit:4;stroke-opacity:1;stroke-dasharray:none"
         sodipodi:type="arc" />
      <rect
         transform="matrix(0,1,-1,0,0,0)"
         y="-787.28333"
         x="695.60229"
         height="32.302055"
         width="351.19971"
         id="rect4083"
         style="fill:#ffffff;fill-opacity:1;stroke:#000000;stroke-width:3.13101339000000012;stroke-miterlimit:4;stroke-opacity:1;stroke-dasharray:none" />
      <rect
         transform="matrix(0,1,-1,0,0,0)"
         y="-434.14279"
         x="691.56171"
         height="32.302055"
         width="351.19971"
         id="rect4083-3"
         style="fill:#ffffff;fill-opacity:1;stroke:#000000;stroke-width:3.13101339000000012;stroke-miterlimit:4;stroke-opacity:1;stroke-dasharray:none" />
      <rect
         transform="matrix(0,1,-1,0,0,0)"
         y="-81.002304"
         x="691.56171"
         height="32.302055"
         width="351.19971"
         id="rect4083-2"
         style="fill:#ffffff;fill-opacity:1;stroke:#000000;stroke-width:3.13101339000000012;stroke-miterlimit:4;stroke-opacity:1;stroke-dasharray:none" />
      <rect
         transform="matrix(0,1,-1,0,0,0)"
         y="239.81334"
         x="695.60229"
         height="32.302055"
         width="351.19971"
         id="rect4083-6"
         style="fill:#ffffff;fill-opacity:1;stroke:#000000;stroke-width:3.13101339000000012;stroke-miterlimit:4;stroke-opacity:1;stroke-dasharray:none" />
      <path
         transform="matrix(0.22742602,0,0,0.22742602,-164.17678,631.22022)"
         d="m -360,392.36218 c 0,22.09139 -17.90861,40 -40,40 -22.09139,0 -40,-17.90861 -40,-40 0,-22.09139 17.90861,-40 40,-40 22.09139,0 40,17.90861 40,40 z"
         sodipodi:ry="40"
         sodipodi:rx="40"
         sodipodi:cy="392.36218"
         sodipodi:cx="-400"
         id="path4063-5"
         style="fill:#ffffff;fill-opacity:1;stroke:#000000;stroke-width:3.68099999000000011;stroke-miterlimit:4;stroke-opacity:1;stroke-dasharray:none"
         sodipodi:type="arc" />
      <path
         transform="matrix(0.22742602,0,0,0.22742602,-164.17678,885.77866)"
         d="m -360,392.36218 c 0,22.09139 -17.90861,40 -40,40 -22.09139,0 -40,-17.90861 -40,-40 0,-22.09139 17.90861,-40 40,-40 22.09139,0 40,17.90861 40,40 z"
         sodipodi:ry="40"
         sodipodi:rx="40"
         sodipodi:cy="392.36218"
         sodipodi:cx="-400"
         id="path4063-5-9"
         style="fill:#ffffff;fill-opacity:1;stroke:#000000;stroke-width:3.68099999000000011;stroke-miterlimit:4;stroke-opacity:1;stroke-dasharray:none"
         sodipodi:type="arc" />
      <path
         transform="matrix(0.22742602,0,0,0.22742602,153.19376,623.139)"
         d="m -360,392.36218 c 0,22.09139 -17.90861,40 -40,40 -22.09139,0 -40,-17.90861 -40,-40 0,-22.09139 17.90861,-40 40,-40 22.09139,0 40,17.90861 40,40 z"
         sodipodi:ry="40"
         sodipodi:rx="40"
         sodipodi:cy="392.36218"
         sodipodi:cx="-400"
         id="path4063-5-94"
         style="fill:#ffffff;fill-opacity:1;stroke:#000000;stroke-width:3.68099999000000011;stroke-miterlimit:4;stroke-opacity:1;stroke-dasharray:none"
         sodipodi:type="arc" />
      <path
         transform="matrix(0.22742602,0,0,0.22742602,154.79776,890.01212)"
         d="m -360,392.36218 c 0,22.09139 -17.90861,40 -40,40 -22.09139,0 -40,-17.90861 -40,-40 0,-22.09139 17.90861,-40 40,-40 22.09139,0 40,17.90861 40,40 z"
         sodipodi:ry="40"
         sodipodi:rx="40"
         sodipodi:cy="392.36218"
         sodipodi:cx="-400"
         id="path4063-5-4"
         style="fill:#ffffff;fill-opacity:1;stroke:#000000;stroke-width:3.68099999000000011;stroke-miterlimit:4;stroke-opacity:1;stroke-dasharray:none"
         sodipodi:type="arc" />
      <path
         transform="matrix(0.22742602,0,0,0.22742602,509.15315,886.98676)"
         d="m -360,392.36218 c 0,22.09139 -17.90861,40 -40,40 -22.09139,0 -40,-17.90861 -40,-40 0,-22.09139 17.90861,-40 40,-40 22.09139,0 40,17.90861 40,40 z"
         sodipodi:ry="40"
         sodipodi:rx="40"
         sodipodi:cy="392.36218"
         sodipodi:cx="-400"
         id="path4063-5-8"
         style="fill:#ffffff;fill-opacity:1;stroke:#000000;stroke-width:3.68099999000000011;stroke-miterlimit:4;stroke-opacity:1;stroke-dasharray:none"
         sodipodi:type="arc" />
      <path
         transform="matrix(0.22742602,0,0,0.22742602,511.56936,623.1288)"
         d="m -360,392.36218 c 0,22.09139 -17.90861,40 -40,40 -22.09139,0 -40,-17.90861 -40,-40 0,-22.09139 17.90861,-40 40,-40 22.09139,0 40,17.90861 40,40 z"
         sodipodi:ry="40"
         sodipodi:rx="40"
         sodipodi:cy="392.36218"
         sodipodi:cx="-400"
         id="path4063-5-3"
         style="fill:#ffffff;fill-opacity:1;stroke:#000000;stroke-width:3.68099999000000011;stroke-miterlimit:4;stroke-opacity:1;stroke-dasharray:none"
         sodipodi:type="arc" />
      <path
         transform="matrix(0.22742602,0,0,0.22742602,860.86888,623.941)"
         d="m -360,392.36218 c 0,22.09139 -17.90861,40 -40,40 -22.09139,0 -40,-17.90861 -40,-40 0,-22.09139 17.90861,-40 40,-40 22.09139,0 40,17.90861 40,40 z"
         sodipodi:ry="40"
         sodipodi:rx="40"
         sodipodi:cy="392.36218"
         sodipodi:cx="-400"
         id="path4063-5-96"
         style="fill:#ffffff;fill-opacity:1;stroke:#000000;stroke-width:3.68099999000000011;stroke-miterlimit:4;stroke-opacity:1;stroke-dasharray:none"
         sodipodi:type="arc" />
      <path
         transform="matrix(0.22742602,0,0,0.22742602,864.30032,886.98676)"
         d="m -360,392.36218 c 0,22.09139 -17.90861,40 -40,40 -22.09139,0 -40,-17.90861 -40,-40 0,-22.09139 17.90861,-40 40,-40 22.09139,0 40,17.90861 40,40 z"
         sodipodi:ry="40"
         sodipodi:rx="40"
         sodipodi:cy="392.36218"
         sodipodi:cx="-400"
         id="path4063-5-0"
         style="fill:#ffffff;fill-opacity:1;stroke:#000000;stroke-width:3.68099999000000011;stroke-miterlimit:4;stroke-opacity:1;stroke-dasharray:none"
         sodipodi:type="arc" />
    </g>
  </g>
</svg>
